<svg width="16" height="16" viewBox="0 0 16 16" xmlns="http://www.w3.org/2000/svg">
    <g fill="none" fill-rule="evenodd">
        <path d="M0 0h16v16H0z"/>
        <path d="m8.013 10.668.034-.002a.67.67 0 0 0 .362-.138l.062-.055 4-4a.667.667 0 0 0-.88-.999l-.062.056L8 9.058 4.471 5.53a.667.667 0 0 0-.998.88l.056.063 4 4a.666.666 0 0 0 .471.195h.013z" fill="#4D4B5F"/>
    </g>
</svg>
