<svg width="120" height="27" viewBox="0 0 120 27" xmlns="http://www.w3.org/2000/svg">
    <defs>
        <radialGradient cx="0%" cy="0%" fx="0%" fy="0%" r="141.421%" id="z988fb919a">
            <stop stop-color="#FF8C00" offset="0%"/>
            <stop stop-color="#FF6200" offset="99.951%"/>
        </radialGradient>
    </defs>
    <g fill-rule="nonzero" fill="none">
        <path d="M37.826 25.844V.912h4.066v21.28h10.031v3.652H37.826zM61.42 3.426c0 .424-.106.815-.317 1.173a2.402 2.402 0 0 1-.85.854 2.234 2.234 0 0 1-1.166.318c-.422 0-.81-.106-1.166-.318a2.402 2.402 0 0 1-.85-.854 2.265 2.265 0 0 1-.317-1.173c0-.425.106-.816.317-1.173.21-.358.494-.643.85-.855a2.234 2.234 0 0 1 1.166-.318c.422 0 .811.106 1.166.318.356.212.64.497.85.855.211.357.317.748.317 1.173zm-4.233 22.418V8.318h3.833v17.526h-3.833zm9.73 0V.912h3.832v9.953a6.537 6.537 0 0 1 2.433-2.245c1-.536 2.1-.804 3.3-.804 1.155 0 2.227.234 3.215.703a8.011 8.011 0 0 1 2.583 1.944c.733.827 1.305 1.798 1.716 2.915.411 1.117.617 2.324.617 3.62 0 1.318-.211 2.546-.633 3.686a9.291 9.291 0 0 1-1.767 2.982 8.053 8.053 0 0 1-2.65 1.977 7.701 7.701 0 0 1-3.282.704c-1.222 0-2.327-.268-3.316-.804a6.235 6.235 0 0 1-2.382-2.279l-.167 2.58h-3.5zm8.764-2.982c.956 0 1.811-.251 2.567-.754.755-.503 1.35-1.19 1.782-2.06.434-.872.65-1.866.65-2.983s-.216-2.106-.65-2.966c-.433-.86-1.027-1.542-1.782-2.044-.756-.503-1.611-.754-2.567-.754-.955 0-1.81.251-2.566.754-.755.502-1.35 1.184-1.783 2.044-.433.86-.65 1.849-.65 2.966 0 1.117.217 2.11.65 2.982.434.871 1.028 1.558 1.783 2.061.756.503 1.611.754 2.566.754zm14.062 2.982V8.318h3.5l.166 2.882c.444-.983 1.06-1.748 1.85-2.295.788-.548 1.716-.821 2.782-.821.333 0 .656.022.967.067.31.044.588.123.833.234l-.433 3.753c-.245-.089-.5-.15-.767-.184a6.407 6.407 0 0 0-.8-.05c-1.333 0-2.377.447-3.132 1.34-.756.894-1.134 2.134-1.134 3.72v8.88h-3.832zm22.26.503c-1.289 0-2.472-.229-3.55-.687a8.504 8.504 0 0 1-2.815-1.927 8.594 8.594 0 0 1-1.85-2.932c-.433-1.128-.65-2.374-.65-3.736 0-1.319.217-2.536.65-3.653a9.252 9.252 0 0 1 1.8-2.932 8.192 8.192 0 0 1 2.716-1.96c1.044-.47 2.177-.704 3.399-.704s2.338.217 3.35.653a7.699 7.699 0 0 1 2.632 1.86c.744.804 1.316 1.76 1.716 2.865.4 1.106.6 2.33.6 3.67v1.139h-12.897c.11 1.028.383 1.916.816 2.664.434.748.995 1.324 1.683 1.726.689.402 1.489.603 2.4.603 1.822 0 3.243-.815 4.265-2.446l3.366 1.307a6.835 6.835 0 0 1-1.75 2.396 7.962 7.962 0 0 1-2.665 1.558 9.576 9.576 0 0 1-3.216.536zm-.3-15.415c-.778 0-1.472.179-2.083.536-.611.358-1.128.86-1.55 1.508-.422.648-.71 1.408-.866 2.279H116c-.133-.871-.389-1.63-.767-2.279a4.099 4.099 0 0 0-1.483-1.508 3.983 3.983 0 0 0-2.05-.536z" fill="#FFF"/>
        <path d="M15.652 9.13h7.826v15.653a7.826 7.826 0 0 1-7.826-7.826V9.13zm-7.826 0V1.304h15.652V9.13H7.826zM0 1.304h7.826V9.13A7.826 7.826 0 0 1 0 1.304zm0 15.653h7.826v7.826A7.826 7.826 0 0 1 0 16.957z" fill="url(#z988fb919a)" transform="translate(0 .912)"/>
    </g>
</svg>
